Anno;Lavoratori_dipendenti_pubblici;Sesso
2012;41 anni e 1 mese;F
2013;41 anni e 5 mesi ;F
2014;41 anni e 6 mesi ;F
2015;41 anni e 6 mesi ;F
2016;41 anni e 10 mesi ;F
2017;41 anni e 10 mesi ;F
2018;41 anni e 10 mesi ;F
2019;42 anni e 2 mesi ;F
2020;42 anni e 2 mesi ;F
2021;42 anni e 5 mesi ;F
2022;42 anni e 5 mesi ;F
2023;42 anni e 8 mesi ;F
2024;42 anni e 8 mesi ;F
2025;42 anni e 11 mesi ;F
2012;42 anni e 1 mese;M
2013;42 anni e 5 mesi ;M
2014;42 anni e 6 mesi ;M
2015;42 anni e 6 mesi ;M
2016;42 anni e 10 mesi ;M
2017;42 anni e 10 mesi ;M
2018;42 anni e 10 mesi ;M
2019;43 anni e 2 mesi ;M
2020;43 anni e 2 mesi ;M
2021;43 anni e 5 mesi ;M
2022;43 anni e 5 mesi ;M
2023;43 anni e 8 mesi ;M
2024;43 anni e 8 mesi ;M
2025;43 anni e 11 mesi ;M
